{
  "type": "service_account",
  "project_id": "content-tools-248505",
  "private_key_id": "9cceb9fbc5d2bc3862015e3882407344bf89fefb",
  "private_key": "-----BEGIN PRIVATE KEY-----\nMIIEvQIBADANBgkqhkiG9w0BAQEFAASCBKcwggSjAgEAAoIBAQCfvTFvbuHH7K0l\ne/uekiOo1JuzbtSQouN3WQOXS/wll8qYI6T6XaF6Kixh/WlOfS374SChAqWRCG97\nckRooTvLC67PaS5tU8RDdyOBWaMymD5XSpaInVGwHNW3TQUyoL9ng8z4d26jmGAR\nF4DlOpy/JGDqoQiP0ul8BgdnISo4vXNKYZ2q/v2ObYctmjIhmT9/Ikgg+rZuboMH\ncKbhhgj8kXnPoCNYFsZ5wZpI9GabP/WDDp3cXq616YbEGZD7IRT0o1z40WP9Ailz\ngw3xWyWjOjKi0Z7FxdtBNIrqpS/DDg9YfUMZnaaGYNlLy2WHeYQxT9f+e05YjSae\nyvSGCucZAgMBAAECggEABDYeOAm3LSivFfETXLEN/J+tAomLqXaJ7bXB6Pq+s+pb\nvoVuDjsVYfL7sZJXSj5K+JGND9b8hiWFSZQP0VGy5whbUao8aEh666vCmrXsyLgy\nfeWrBgCzzHiuJRjZkrtMizjyg03OyRm1gAMxHu9b05RCHogkAXq2NNK0iO0Fv8eA\nOUWhi6WiXHOQL17Z6op/4moAglnZOOA1EST6DjMCtVDhDQCB5oBCcszJNmdpXeNy\nD7pE16dX/vBEFQiknuUNoQHAbA01lV0ZnP0nBUUpX6o+CNqs48pVF4xqqRxynXUl\n22KlJ+YFM5rZdjP9+Z4FTiueDPCVmkaRh3OBhR5fGwKBgQDMVfTKJVGexzkL9e7y\nTvXM/HijVghsokV7umdU+FEBHA4T/cNh05lY0Oi0qe4PFXeIYK3rNG7EZ3NhK8Ww\n5tGkU4mLo8prfl6F9a9ks/lt6onoN6PvFjnkJYMddAgTPgoHrHkN//74IEoP9Tan\nG4+GI8By5YAjrX9bWZaNZTTVMwKBgQDIIJ+sSsGLNtT4bK5XyqzElJtudrAS0hjj\nJYUa0V4vKm7yRUwEBDtOVs37AKU7Dj5e+9seeveMVGYLINnEPm/PWHg1LGL1pOMn\nhAjy41JDREozr6XVpSR3bzsQcBpsXlTBr1mK+nrJUjP28JP6BBooGlBFCWEe70gy\n7oZEUPr6gwKBgQC+lGkk5Ru0ULIHUtETVMvy7YODLCndUJgn51qbKKM8urLyuFsz\n8cxzxx1T664qiWYcX7e2yQeKzcYSWmYfMZlUf8mo4RJZodp9bQGylh3NA9SuLr8K\nrps+DDK3FNK3R8TJFXcutJZVTKBnM9lOkOkTPmMvhpg2Loq7Y9qEdGGLewKBgDJj\nbHCf/e1EaAkIrDj0kd2JIT2F6r1CYvvGNaZT8ufjQj4DzqjwO9J0rrY1KmUdJ/0Y\nYspg4bVWhr7kjZAIvHQzbUjOHTiGRJ9tciddrxe6uQgcgJ+zTeQ4gGGaKD0C30pJ\nET2Z5ZKM/QJ+/nMj10YjofRP8UEttDsGrY3D6f1rAoGACJHbRIWXG7PThh7hCX50\nfEdIYdzODXtB4l7iRg2QHhy+//kK98ZOTPPR9h4gYpDHZybIvPQRLCnTUXEu1LnI\nXZYZtw+tnD996BKEsgJ+pywfBfqREgW4Y6RZi2CTg5nQC9A1ky6BzU6ZWOIpTmbK\nV7CGAysPzLR2YmshQdzpWeE=\n-----END PRIVATE KEY-----\n",
  "client_email": "content-service-build-machine@content-tools-248505.iam.gserviceaccount.com",
  "client_id": "116518747976241337026",
  "auth_uri": "https://accounts.google.com/o/oauth2/auth",
  "token_uri": "https://oauth2.googleapis.com/token",
  "auth_provider_x509_cert_url": "https://www.googleapis.com/oauth2/v1/certs",
  "client_x509_cert_url": "https://www.googleapis.com/robot/v1/metadata/x509/content-service-build-machine%40content-tools-248505.iam.gserviceaccount.com"
}
